<?xml version="1.0" encoding="UTF-8"?>
<kml xmlns="http://www.opengis.net/kml/2.2" xmlns:gx="http://www.google.com/kml/ext/2.2">
    <Document id="1">
        <Style id="8">
            <LineStyle id="9">
                <color>ffff0000</color>
                <colorMode>normal</colorMode>
                <width>5</width>
            </LineStyle>
            <PolyStyle id="10">
                <color>64008000</color>
                <colorMode>normal</colorMode>
                <fill>1</fill>
                <outline>1</outline>
            </PolyStyle>
        </Style>
        <Style id="17">
            <LineStyle id="18">
                <color>ffff0000</color>
                <colorMode>normal</colorMode>
                <width>5</width>
            </LineStyle>
            <PolyStyle id="19">
                <color>64008000</color>
                <colorMode>normal</colorMode>
                <fill>1</fill>
                <outline>1</outline>
            </PolyStyle>
        </Style>
        <Placemark id="3">
            <name>red</name>
            <styleUrl>#8</styleUrl>
            <Polygon id="2">
                <outerBoundaryIs>
                    <LinearRing id="6">
                        <coordinates>69.1879857,34.5510978,0.0 69.1868499,34.5512608,0.0 69.1869932,34.5514266,0.0 69.18751,34.5518526,0.0 69.1878399,34.5516808,0.0 69.1879857,34.5510978,0.0</coordinates>
                    </LinearRing>
                </outerBoundaryIs>
            </Polygon>
        </Placemark>
        <Placemark id="12">
            <name>blue</name>
            <styleUrl>#17</styleUrl>
            <Polygon id="11">
                <outerBoundaryIs>
                    <LinearRing id="15">
                        <coordinates>69.18375,34.5528,0.0 69.1835,34.553,0.0 69.1833,34.55335,0.0 69.1832,34.554,0.0 69.1839,34.55354,0.0 69.18375,34.5528,0.0</coordinates>
                    </LinearRing>
                </outerBoundaryIs>
            </Polygon>
        </Placemark>
    </Document>
</kml>
